Nick/host_interface/host_interface.sim/sim_1/behav/xsim/hostif_test_tb.vcd
$date
   Mon Oct 14 17:54:34 2024
$end

$version
  2024.1
  $dumpfile ("hostif_test_tb.vcd") 
$end

$timescale
  1ps
$end

$scope module hostif_test_tb $end
$var reg 1 ! clk100MHZ $end
$var reg 8 " hostif_psoc_data [7:0] $end
$var reg 1 # cpu_resetn_raw $end
$var reg 1 $ hostif_psoc_fpga_xfc_raw $end
$var reg 1 % hostif_psoc_reset_raw $end
$var reg 1 & hostif_fpga_psoc_xfc $end
$var reg 32 ' regs_data [31:0] $end
$var reg 4 ( regs_addr [3:0] $end
$var reg 1 ) regs_we $end
$var reg 32 * state_ram_data [31:0] $end
$var reg 10 + state_ram_addr [9:0] $end
$var reg 1 , state_ram_we $end
$var reg 16 - state_ram_byte_enable [15:0] $end
$var reg 1 . xfc $end
$var reg 1 / xfc_p1 $end
$var reg 1 0 transfer $end
$var reg 3 1 current_state [2:0] $end
$scope module dut $end
$var wire 1 2 clk100MHZ $end
$var wire 8 3 hostif_psoc_data [7:0] $end
$var wire 1 4 cpu_resetn_raw $end
$var wire 1 5 hostif_psoc_fpga_xfc_raw $end
$var wire 1 6 hostif_psoc_reset_raw $end
$var reg 1 & hostif_fpga_psoc_xfc $end
$var reg 32 ' regs_data [31:0] $end
$var reg 4 ( regs_addr [3:0] $end
$var reg 1 ) regs_we $end
$var reg 32 * state_ram_data [31:0] $end
$var reg 16 7 state_ram_addr [15:0] $end
$var reg 1 , state_ram_we $end
$var reg 16 - state_ram_byte_enable [15:0] $end
$var reg 1 . xfc $end
$var reg 1 / xfc_p1 $end
$var reg 1 0 transfer $end
$var reg 3 1 current_state [2:0] $end
$var reg 32 8 out_data [31:0] $end
$var reg 16 9 out_addr [15:0] $end
$var reg 1 : reset_p1 $end
$var reg 1 ; reset $end
$var reg 1 < next_state $end
$upscope $end
$upscope $end
$enddefinitions $end

#20000
$dumpvars
0!
b0 "
0#
0$
0%
x&
bx '
bx (
x)
bx *
bx +
x,
bx -
0.
0/
00
b0x 1
02
b0 3
04
05
06
bx 7
bx 8
bx 9
0:
0;
x<
$end

#25000
1!
12
1:

#30000
0!
02

#35000
1!
b0 1
12
1;

#40000
0!
02

#45000
1!
12
b0 8
b0 9

#50000
0!
02

#55000
1!
12

#60000
0!
02

#65000
1!
12

#70000
0!
02

#75000
1!
12

#80000
0!
02

#85000
1!
12

#90000
0!
02

#95000
1!
12

#100000
0!
1$
02
15

#105000
1!
12

#110000
0!
02

#115000
1!
12

#120000
0!
02

#125000
1!
12

#130000
0!
02

#135000
1!
12

#140000
0!
02

#145000
1!
12

#150000
0!
02

#155000
1!
12

#160000
0!
02

#165000
1!
12

#170000
0!
02

#175000
1!
12

#180000
0!
02

#185000
1!
12

#190000
0!
02

#195000
1!
12

#200000
0!
0$
02
05

#205000
1!
12

#210000
0!
02

#215000
1!
12

#220000
0!
02

#225000
1!
12

#230000
0!
02

#235000
1!
12

#240000
0!
02

#245000
1!
12

#250000
0!
02

#255000
1!
12

#260000
0!
02

#265000
1!
12

#270000
0!
02

#275000
1!
12

#280000
0!
02

#285000
1!
12

#290000
0!
02

#295000
1!
12

#300000
0!
1$
02
15

#305000
1!
12

#310000
0!
02

#315000
1!
12

#320000
0!
02

#325000
1!
12

#330000
0!
02

#335000
1!
12

#340000
0!
02

#345000
1!
12

#350000
0!
02

#355000
1!
12

#360000
0!
02

#365000
1!
12

#370000
0!
02

#375000
1!
12

#380000
0!
02

#385000
1!
12

#390000
0!
02

#395000
1!
12

#400000
0!
0$
02
05

#405000
1!
12

#410000
0!
02

#415000
1!
12

#420000
0!
02

#425000
1!
12

#430000
0!
02

#435000
1!
12

#440000
0!
02

#445000
1!
12

#450000
0!
02

#455000
1!
12

#460000
0!
02

#465000
1!
12

#470000
0!
02

#475000
1!
12

#480000
0!
02

#485000
1!
12

#490000
0!
02

#495000
1!
12

#500000
0!
1$
02
15

#505000
1!
12

#510000
0!
02

#515000
1!
12

#520000
0!
02

#525000
1!
12

#530000
0!
02

#535000
1!
12

#540000
0!
02

#545000
1!
12

#550000
0!
02

#555000
1!
12

#560000
0!
02

#565000
1!
12

#570000
0!
02

#575000
1!
12

#580000
0!
02

#585000
1!
12

#590000
0!
02

#595000
1!
12

#600000
0!
0$
02
05

#605000
1!
12

#610000
0!
02

#615000
1!
12

#620000
0!
02

#625000
1!
12

#630000
0!
02

#635000
1!
12

#640000
0!
02

#645000
1!
12

#650000
0!
02

#655000
1!
12

#660000
0!
02

#665000
1!
12

#670000
0!
02

#675000
1!
12

#680000
0!
02

#685000
1!
12

#690000
0!
02

#695000
1!
12

#700000
0!
1$
02
15

#705000
1!
12

#710000
0!
02

#715000
1!
12

#720000
0!
02

#725000
1!
12

#730000
0!
02

#735000
1!
12

#740000
0!
02

#745000
1!
12

#750000
0!
02

#755000
1!
12

#760000
0!
02

#765000
1!
12

#770000
0!
02

#775000
1!
12

#780000
0!
02

#785000
1!
12

#790000
0!
02

#795000
1!
12

#800000
0!
0$
02
05

#805000
1!
12

#810000
0!
02

#815000
1!
12

#820000
0!
02

#825000
1!
12

#830000
0!
02

#835000
1!
12

#840000
0!
02

#845000
1!
12

#850000
0!
02

#855000
1!
12

#860000
0!
02

#865000
1!
12

#870000
0!
02

#875000
1!
12

#880000
0!
02

#885000
1!
12

#890000
0!
02

#895000
1!
12

#900000
0!
1$
02
15

#905000
1!
12

#910000
0!
02

#915000
1!
12

#920000
0!
02

#925000
1!
12

#930000
0!
02

#935000
1!
12

#940000
0!
02

#945000
1!
12

#950000
0!
02

#955000
1!
12

#960000
0!
02

#965000
1!
12

#970000
0!
02

#975000
1!
12

#980000
0!
02

#985000
1!
12

#990000
0!
02

#995000
1!
12

#1000000
0!
0$
02
05
